Id;Genre;Espece;Sexe;Age;C1;C2;C3;C4;C5;M1;M2;C1bis;C2bis;C3bis;C4bis;C5bis;M1bis;M2bis
P14;Sus;Sscrofa;M;A;102,24;28,68;94,14;90,98;59,14;81,76;51,57;101,5;26,32;95,5;91;59,53;85,05;52,47
P15;Sus;Sscrofa;F;J;87,38;30,97;80,34;62,27;50,34;62,38;36,07;86,73;30,81;79,7;61,99;50,51;63,62;34,96
P24;Sus;Sscrofa;M;A;86,96;28,86;78,07;71,18;50,33;70,49;39,74;86,79;28,79;78,61;71,21;50,48;69,42;38,63
P17;Sus;Sscrofa;M;J;89,9;19,84;84,23;69,65;53,6;59,08;41,87;90,51;19,62;85,52;69,21;53,89;59,4;40,97
P27;Sus;Sscrofa;M;A;103,81;32,34;96,49;84,41;57,65;83,58;47,75;102,93;32,29;95,45;84,77;57,41;83,59;47,87
Anonyme;Sus;Sscrofa;F;A;91,66;29,26;88,17;72,34;56,2;70,38;40,44;92,57;28,93;88,36;72,39;56,29;70,67;39,71
P04;Sus;Sscrofa;M;A;97,93;27,6;89,55;82,35;52,12;73,95;49,45;97,64;27,32;88,3;82,26;52,27;73,57;47,97
P05;Sus;Sscrofa;F;A;98,1;32,35;86,32;74,21;47,69;65,01;38,98;98,6;31,69;86,84;74,21;47,74;66,47;38,45
P12;Sus;Sscrofa;F;A;91,7;33,82;78,43;63,27;46,91;59,02;35,15;91,76;33,78;77,65;63,28;46,89;60,38;34,3
P30;Sus;Sscrofa;M;J;84,43;29,12;78,35;64,28;50,25;54,33;36,27;95,37;29,14;76,97;64,75;50,07;53,55;36,01
P29;Sus;Sscrofa;F;A;91,5;28,43;82,98;68,48;51,97;62,98;36,4;91,37;28,45;83,26;69,44;51,68;63,68;35,93
P19;Sus;Sscrofa;M;J;83,21;25,84;77,41;60,69;48,85;56,43;35,99;82,78;25,54;80,26;60,76;49,62;56,28;36,03
P31;Sus;Sscrofa;F;A;96,37;25,53;90,41;80,15;51,16;79,26;42,97;96,83;24,88;92,08;80,4;51,55;79,3;42,61
Ph.sp.1123;Phacochoerus;Phafricanus;M;A;132;44,06;62,85;98,72;57,77;79;59,61;132,99;42,56;63,35;99,28;57,91;77,89;58,61
Ph.sp.2.1199;Phacochoerus;Phafricanus;M;A;150,4;54,71;70,69;107,83;62,7;89,26;84,03;150,9;55,14;73,47;107,75;62,54;89,6;84,11
P33;Sus;Sscrofa;F;A;96,5;;;;52,42;70,85;38,87;96,78;;;;52,42;70,64;38,84
P37;Phacochoerus;Phafricanus;F;A;117,82;32,36;69,15;83,5;54,84;;;117,86;31,75;67,07;83,15;55,17;;
P13;Sus;Sscrofa;F;A;94,97;26,29;91,89;74,28;51,75;71,4;36,66;94,74;26,07;92,73;74,06;51,34;73,11;39,43
