;Genre;Espece;Sexe;Age;C1;C2;C3;C4;C5;M1;M2;C1bis;C2bis;C3bis;C4bis;C5bis;M1bis;M2bis
P27;Sus;Sscrofa;M;Adulte;103,66;33;96,7;85,06;57,16;74,45;54,89;103,76;32,48;97,34;85,08;56,18;73,88;54,68
P29;Sus;Sscrofa;F;Adulte;91,54;28,6;87,46;69,95;51,76;59,42;40,31;91,24;28,51;88,09;69,82;51,75;57,93;40,12
P31;Sus;Sscrofa;F;Adulte;96,07;25,56;89,92;80,27;51,56;71,03;50,02;95,42;25,82;90,02;80,18;50,68;70,64;49,89
Anonyme;Sus;Sscrofa;F;Adulte;92,76;29,13;90,1;72,45;56,11;65,96;42,77;92,51;29,48;90,22;72,34;56,18;66,1;43,23
P04;Sus;Sscrofa;M;Adulte;97,12;27,57;93,73;82,4;52,4;68,42;56,34;98,18;27,46;93,89;81,85;52,36;67,41;56,42
P05;Sus;Sscrofa;F;Adulte;98,74;32,22;90,23;74,61;47,8;59,6;45,36;99,11;32,39;90,62;73,98;46,78;60,33;45,44
P19;Sus;Sscrofa;M;Jeune;81,87;26,04;81,73;60,74;49,91;51,1;39,56;83,53;26,2;81,6;60,55;49,42;51,13;39,91
P33;Sus;Sscrofa;F;Adulte;;;;;52,06;59,77;44,89;97,55;;;;52,4;60,67;44,85
P37;Phacochoerus;Phafricanus;F;Adulte;118,44;32,9;74,08;84,05;55,13;;;118,17;32,83;74,3;84,28;55,25;;
P15;Sus;Sscrofa;F;Jeune;87,43;31,11;83,07;62,17;50,46;58,23;38,51;87,38;31,15;83,13;62,19;49,69;47,09;38,47
P24;Sus;Sscrofa;M;Adulte;86,87;29,29;84,42;71,03;50,44;65,35;42,05;87,45;29,21;84,35;71,22;50,54;63,85;42,29
P14;Sus;Sscrofa;M;Adulte;102,57;26,85;103,36;90,5;59,32;76,8;56,48;102,35;26,99;102,71;90,98;59,45;77;56,89
P30;Sus;Sscrofa;M;Jeune;84,69;29,56;80,42;64,53;50,36;52,53;39,71;85,7;29,4;80,23;64,44;49,55;52,1;39,65
P13;Sus;Sscrofa;F;Adulte;94,96;26,59;96,17;74,1;51,76;63,62;44,86;94,99;26,86;96,16;74,09;51,5;63,9;45,09
P12;Sus;Sscrofa;F;Adulte;91,75;34,23;79;63,54;47,29;53,96;37,78;92,56;33,95;79,09;63,44;47,23;53,99;37,53
C3063;Phacochoerus;Phafricanus;M;Adulte;133,18;43,4;65,24;99,31;57,61;76,9;81,89;133,01;43,08;64,03;99,36;57,93;77,93;81,87
Ph1198;Phacochoerus;Phafricanus;M;Adulte;151,08;55,32;78,89;108,2;62,63;89,24;109,35;151,42;54,89;80,07;107,89;62,83;88,89;110,83
P17;Sus;Sscrofa;M;Jeune;90,05;19,82;85,7;70,17;53,74;56,72;46,14;90,82;20,3;85,1;69,7;53,99;55,89;46,09
